<svg width="18" height="16" viewBox="0 0 18 16" fill="none" xmlns="http://www.w3.org/2000/svg">
<path d="M17.2071 8.70711C17.5976 8.31658 17.5976 7.68342 17.2071 7.29289L10.8431 0.928932C10.4526 0.538408 9.81946 0.538408 9.42893 0.928932C9.03841 1.31946 9.03841 1.95262 9.42893 2.34315L15.0858 8L9.42893 13.6569C9.03841 14.0474 9.03841 14.6805 9.42893 15.0711C9.81946 15.4616 10.4526 15.4616 10.8431 15.0711L17.2071 8.70711ZM0.5 9L16.5 9L16.5 7L0.5 7L0.5 9Z" fill="black"/>
</svg>
